{
    "rzz_err_avg": 0.0125142325,
    "cnot_err_avg": 0.0181190208,
    "qubits_list": [
        13,
        12,
        10,
        7,
        4,
        1,
        2,
        3,
        5,
        8,
        11,
        14
    ],
    "scale_factors": [
        1.0,
        1.5,
        2.0
    ],
    "dt": 0.5,
    "nstart": 0,
    "nend": 20,
    "dpath": "/home/ykent/data/n12/"
}