### new jobs
621c0f33976d9f0a4c20cb49
### new jobs
621ce20aa16487d41ee6fd0b
### new jobs
621f8d13aea273d31125f451
### new jobs
622001c04668abf15b8d9fff
### new jobs
6221179ee71dc71dd252fedd
### new jobs
622189843a4a26603ffbde32
### new jobs
6222b5cd3178107497202486
### new jobs
622447276858d03f6dc11f8a
### new jobs
6224c828827b3757088030af
### new jobs
622502a7eee8da74605676c3
