### new jobs
621c0e15976d9f413820cb47
### new jobs
621ce0e9976d9f781b20d05d
### new jobs
621f8be40474e8f8851dbaff
### new jobs
6220009b3a4a269d5ffbda0f
### new jobs
622116703a4a262077fbdc96
### new jobs
6221885b762eb7004881ca9a
### new jobs
6222b499827b377f368024a0
### new jobs
622445faeee8da9898567411
### new jobs
6224c6f831781002d9203069
### new jobs
6225017a817d61546ea87369
