{
    "backend": "ibmq_montreal",
    "rzz_err_avg": 0.0081342683,
    "cnot_err_avg": 0.0164223534,
    "qubits_list": [
        10,
        12,
        15,
        18,
        21,
        23,
        24,
        25,
        22,
        19,
        16,
        14,
        11,
        8,
        5,
        3,
        2,
        1,
        0
    ],
    "scale_factors": [
        1.0,
        1.5,
        2.0
    ],
    "dt": 0.5,
    "nstart": 30,
    "nend": 40,
    "step_size": 5,
    "dpath": "/home/ykent/data/n19/"
}