### new jobs
62297b7f6d026a31dba36320
### new jobs
6229b57a817d6147a2a882ad
### new jobs
6229ee32eee8da6d4e568692
### new jobs
622a28a4a9086d4a532581eb
### new jobs
622c2a98827b37533d8044b2
### new jobs
622c63b4a9086d2f0a2585c5
### new jobs
622c9ca66858d083a8c1368a
### new jobs
622cf0ea25b05bed1676fa28
### new jobs
622d2a19a9086de81b2586c9
### new jobs
622d63077453347676a7a54e
