### new jobs
62295eb96d026ac5b0a362af
### new jobs
6229987d827b3752fe803ff8
### new jobs
6229d1b8cd4703387ce9a954
### new jobs
622a0a9e827b37a5cb804177
### new jobs
622c0ddaa9086dc14b258494
### new jobs
622c46db50a9af721e9fcbe8
### new jobs
622c7fe1cd47032feee9aeec
### new jobs
622cd3e8817d618183a888db
### new jobs
622d0d2c6d026a28a2a36b67
### new jobs
622d465db64a3c855d09803b
