# step     ed        z_pi_cnot(zne, pauli twirling)  z_pi_pulse(zne, pauli twirling, dynamical decoupling)  err-bar_cnot  err-bar_pulse z_pi_cnot_no_em  err-bar_cnot_no_em z_pi_pulse_no_em  err-bar_pulse_no_em
  0.000000   -1.000000   -0.957092   -0.968300    0.006883    0.004494   -0.879408    0.003335   -0.886604    0.004775
  0.500000   -0.886995   -0.902166   -0.914509    0.024417    0.021857   -0.706811    0.008592   -0.746839    0.014440
  1.000000   -0.725162   -0.728788   -0.752946    0.043396    0.044934   -0.536829    0.016851   -0.586102    0.017909
  1.500000   -0.568829   -0.554089   -0.576485    0.048271    0.074581   -0.395938    0.013980   -0.459646    0.025572
  2.000000   -0.301124   -0.261311   -0.317365    0.058662    0.070801   -0.210367    0.012474   -0.260772    0.019389
  2.500000   -0.031742    0.038107   -0.008026    0.073762    0.077488   -0.062802    0.017398   -0.088757    0.019825
  3.000000    0.212238    0.271083    0.204419    0.081188    0.093508    0.053108    0.019531    0.042184    0.022830
  3.500000    0.450379    0.506620    0.465702    0.080366    0.096661    0.145671    0.017921    0.171210    0.025938
  4.000000    0.631003    0.639557    0.610013    0.066319    0.075298    0.184358    0.018231    0.230504    0.017307
  4.500000    0.757127    0.699646    0.736467    0.068597    0.081300    0.197757    0.017357    0.272263    0.022567
  5.000000    0.802860    0.664546    0.739512    0.085771    0.085913    0.186136    0.022755    0.265811    0.023955
  5.500000    0.756689    0.584926    0.690896    0.083792    0.075954    0.151062    0.019854    0.235618    0.023358
  6.000000    0.631667    0.453816    0.583650    0.065701    0.088690    0.114647    0.012896    0.187710    0.024169
  6.500000    0.446664    0.340549    0.411640    0.059034    0.065363    0.082092    0.012735    0.124230    0.019331
  7.000000    0.230143    0.154612    0.252027    0.061716    0.065404    0.036667    0.016254    0.060797    0.015906
  7.500000   -0.011932    0.034804    0.055960    0.062452    0.067485    0.002201    0.012455    0.004706    0.015143
  8.000000   -0.244072   -0.059960   -0.079306    0.064506    0.059452   -0.020418    0.012404   -0.047427    0.014182
  8.500000   -0.444547   -0.150841   -0.250253    0.048313    0.068815   -0.035705    0.010842   -0.088023    0.015005
  9.000000   -0.618716   -0.182579   -0.329740    0.044618    0.061179   -0.042821    0.010274   -0.104475    0.013248
  9.500000   -0.738964   -0.182503   -0.376548    0.050194    0.056113   -0.042460    0.007478   -0.114483    0.013884
 10.000000   -0.774457   -0.162864   -0.380311    0.046326    0.063782   -0.035622    0.009533   -0.102109    0.016279
 10.500000   -0.720707   -0.109802   -0.338099    0.048245    0.067941   -0.021167    0.007936   -0.091162    0.014815
 11.000000   -0.606291   -0.110531   -0.282995    0.045473    0.065518   -0.016693    0.006794   -0.067088    0.010153
 11.500000   -0.448524   -0.043710   -0.206193    0.048310    0.051200   -0.003284    0.005602   -0.041479    0.010537
 12.000000   -0.240813   -0.015168   -0.111091    0.048169    0.059007    0.003426    0.005523   -0.020680    0.010483
 12.500000   -0.023961    0.003613   -0.042694    0.057746    0.048848    0.010861    0.006072   -0.000244    0.008985
 13.000000    0.177814    0.040369    0.017693    0.046127    0.050440    0.015060    0.006255    0.018455    0.010801
 13.500000    0.365291    0.035032    0.094990    0.039840    0.044827    0.016469    0.006138    0.028839    0.008840
 14.000000    0.513024    0.049369    0.147588    0.054567    0.051823    0.013745    0.005449    0.037326    0.008279
 14.500000    0.607660    0.052053    0.140497    0.047593    0.051053    0.014358    0.005493    0.039032    0.007411
 15.000000    0.632944    0.045497    0.165321    0.055743    0.052897    0.012494    0.006443    0.041027    0.005855
 15.500000    0.588929    0.022169    0.125726    0.051850    0.049625    0.009747    0.006622    0.028156    0.007936
 16.000000    0.483277    0.010256    0.106319    0.048623    0.049152    0.007325    0.004756    0.023322    0.007498
 16.500000    0.330060    0.013691    0.081027    0.040196    0.047765    0.008517    0.003676    0.016686    0.007572
 17.000000    0.157816    0.016925    0.030620    0.045814    0.056324    0.004138    0.004052    0.006485    0.008007
 17.500000   -0.040680   -0.014122    0.000364    0.048036    0.046027    0.002819    0.005081   -0.000014    0.007452
 18.000000   -0.229753    0.001731   -0.049368    0.049315    0.056345    0.004381    0.004898   -0.005303    0.007564
 18.500000   -0.373598    0.006785   -0.040509    0.053571    0.040250    0.004107    0.006403   -0.011314    0.006114
 19.000000   -0.508966   -0.017086   -0.058757    0.049809    0.044588    0.000812    0.004290   -0.011310    0.006524
 19.500000   -0.595022    0.014115   -0.043387    0.053594    0.045002    0.004896    0.005443   -0.010336    0.006096
