# step  trotter  cy-device  err cy-real err cy-imag err
  0.000000   5.973163   5.636979   1.004734   5.635553   1.004784  -0.126755   0.899937
  1.034483   4.346902   3.944638   1.762389   3.943926   1.762558  -0.074944   1.206585
  2.068966   2.620154   2.061956   2.393822   2.061767   2.393899   0.027924   1.925667
  3.103448   1.328929   0.222768   3.068805   0.215217   3.102442  -0.057507   2.551514
  4.137931   0.838885   1.694662   2.996057  -1.618503   3.041699   0.502323   2.472947
  5.172414   2.236429   2.714536   2.506390  -2.515806   2.498458   1.019521   2.554158
  6.206897   3.302287   3.025032   2.051778  -2.915695   2.050394   0.805938   2.069806
  7.241379   3.736369   3.098223   1.574237  -2.865785   1.553845   1.177396   1.690003
  8.275862   3.245050   2.258209   1.401452  -1.966798   1.398152   1.109601   1.411770
  9.310345   2.271901   1.875024   1.558819  -1.379807   1.565619   1.269585   1.550749
 10.344828   1.790059   1.061832   1.484001  -0.230353   1.348225   1.036545   1.490386
 11.379310   1.304899   0.807620   1.542532  -0.034697   1.196428   0.806875   1.543100
 12.413793   0.641501   0.314604   1.161884   0.160050   1.230522   0.270850   1.136941
 13.448276   0.936850   1.019676   1.053272   1.016929   1.054012  -0.074795   0.906061
 14.482759   1.257618   0.876507   0.959428   0.787795   0.970151  -0.384246   0.912974
 15.517241   1.280490   0.766799   0.963060   0.283844   0.907448  -0.712329   0.971597
 16.551724   0.889715   0.809383   0.773938   0.268583   0.867423  -0.763521   0.761573
 17.586207   0.735017   0.586255   0.834376  -0.175444   0.762162  -0.559387   0.841145
 18.620690   0.441052   0.225626   0.881278  -0.029350   0.921270  -0.223709   0.880573
 19.655172   0.026418   0.316652   0.783443  -0.105585   0.803034  -0.298530   0.780957
 20.689655   0.354736   0.295923   0.741645  -0.206214   0.804829  -0.212241   0.676605
 21.724138   0.481261   0.354066   0.648784  -0.341175   0.649439  -0.094668   0.640220
 22.758621   0.297984   0.388475   0.598252  -0.065273   0.609205   0.382952   0.597931
 23.793103   0.357509   0.222415   0.560255  -0.214548   0.556288  -0.058630   0.610896
 24.827586   0.284045   0.143515   0.574824  -0.139100   0.574612  -0.035325   0.578101
 25.862069   0.466585   0.478859   0.633588   0.211713   0.623107   0.429516   0.636109
 26.896552   0.389534   0.236949   0.682247   0.187738   0.687643  -0.144565   0.673049
 27.931034   0.350536   0.328415   0.560009   0.323261   0.559723   0.057955   0.568835
 28.965517   0.094829   0.439348   0.479809   0.436455   0.478637  -0.050338   0.560972
 30.000000   0.151602   0.253062   0.471969   0.227060   0.475419  -0.111732   0.457444
