# step  trotter  cy-device  err
  0.000000   5.973163   5.636979   1.004734
  1.034483   4.346902   3.944638   1.762389
  2.068966   2.620154   2.061956   2.393822
  3.103448   1.328929   0.222768   3.068805
  4.137931   0.838885   1.694662   2.996057
  5.172414   2.236429   2.714536   2.506390
  6.206897   3.302287   3.025032   2.051778
  7.241379   3.736369   3.098223   1.574237
  8.275862   3.245050   2.258209   1.401452
  9.310345   2.271901   1.875024   1.558819
 10.344828   1.790059   1.061832   1.484001
 11.379310   1.304899   0.807620   1.542532
 12.413793   0.641501   0.314604   1.161884
 13.448276   0.936850   1.019676   1.053272
 14.482759   1.257618   0.876507   0.959428
 15.517241   1.280490   0.766799   0.963060
 16.551724   0.889715   0.809383   0.773938
 17.586207   0.735017   0.586255   0.834376
 18.620690   0.441052   0.225626   0.881278
 19.655172   0.026418   0.316652   0.783443
 20.689655   0.354736   0.295923   0.741645
 21.724138   0.481261   0.354066   0.648784
 22.758621   0.297984   0.388475   0.598252
 23.793103   0.357509   0.222415   0.560255
 24.827586   0.284045   0.143515   0.574824
 25.862069   0.466585   0.478859   0.633588
 26.896552   0.389534   0.236949   0.682247
 27.931034   0.350536   0.328415   0.560009
 28.965517   0.094829   0.439348   0.479809
 30.000000   0.151602   0.253062   0.471969
