{
    "backend": "ibm_washington",
    "rzz_err_avg": 0.02,
    "cnot_err_avg": 0.05,
    "qubits_list": [
        3,
        2,
        1,
        0,
        14,
        18,
        19,
        20,
        21,
        22,
        23,
        24,
        25,
        26,
        27,
        28,
        29,
        30,
        31,
        32,
        36,
        51,
        50,
        49,
        48,
        47,
        46,
        45,
        44,
        43,
        42,
        41,
        40,
        39,
        38,
        37,
        52,
        56,
        57,
        58,
        59,
        60,
        61,
        62,
        63,
        64,
        65,
        66,
        67,
        68,
        69,
        70,
        74,
        89,
        88,
        87,
        86,
        85,
        84,
        83,
        82,
        81,
        80,
        79,
        78,
        77,
        76,
        75,
        90,
        94,
        95,
        96,
        97,
        98,
        99,
        100,
        101,
        102,
        103,
        104,
        105,
        106,
        107,
        108,
        112,
        126,
        125,
        124,
        123,
        122,
        121,
        120,
        119
    ],
    "scale_factors": [
        1.0,
        1.5,
        2.0
    ],
    "dt": 0.5,
    "nstart": 33,
    "nend": 36,
    "step_size": 5,
    "dpath": "/home/ykent/data/n93/"
}