62952695f33cdb4b1b2e0551
6295295832e1766e4593c8a2
62952c0b32e176393f93c8ba
62952ecc1ea57ff9baebd502
6295318932e1763edb93c8cd
629534484bb9750873efb393
629536f53bb4af1bf3b953cd
629539b41ea57fbbc4ebd50e
62953c75f33cdb64d32e0581
62953f38bc0d0295b5dbebd0
