### new jobs
62958a324bb975714fefb414
### new jobs
6296ce374ad655e2c09e4f2d
### new jobs
62975f08a38471b10644fcb5
### new jobs
62980710f29806442f810340
### new jobs
629892f901885c7f0df345af
### new jobs
62993a30c62352faa79e17f0
### new jobs
6299c4d201885c9213f34b9b
### new jobs
629a485ba384713ab0450e67
### new jobs
629ad9af22557e0eed648862
### new jobs
629b6d54a384719d314513db
