### new jobs
629603473bb4af4ce5b95590
### new jobs
62973fa201885cd601f33b1c
### new jobs
6297e293a38471e8f54500b6
### new jobs
62987372063b3dc75425da40
### new jobs
62991700f298069bfb810a60
### new jobs
6299a6c7a384711ee8450b73
### new jobs
629a2bbad624be1cbdc8a948
### new jobs
629ab990c6235282559e1ec3
### new jobs
629b4e50a38471e7b04512e9
### new jobs
629be24222557e323b648ed1
