### new jobs
6295ae264bb9757dd4efb471
### new jobs
6296f18a32e176758e93cf14
### new jobs
62978634f29806949a80ff40
### new jobs
629829beb675fcc4031711a6
### new jobs
6298ba4101885c1557f346ff
### new jobs
62995b4c16ca6079907e184b
### new jobs
6299e3b022557e3c8364845e
### new jobs
629a6a30a70e335682609034
### new jobs
629afc5f22557e4ac9648914
### new jobs
629b8fddb4d2d3202078ba53
