616a485e2f4fba9baa1b9a83
616a4868f21fca76607742ff
616a4871f21fca7f46774300
616a487a3b2fcaacfced708c
616a4883fc34471df8044612
616a48e6fc344727d3044618
616a48f7f21fcaa3e9774304
616a4900e4cd17663d4b3b14
616a490c2f4fba346c1b9a87
616a4915f21fca1706774305
616a4978be575d0e5271508c
616a4981f21fcae47d774307
616a498c540eb2800028ba87
616a499582ec5af752ddf418
616a499ff21fcaae94774308
616a4a01fc3447ebaa044621
616a4a0aab11305e20046594
616a4a143b2fca9417ed7097
616a4a1d540eb2bd4728ba8e
616a4a2be4cd17bf4c4b3b1b
616a4a8a540eb2765f28ba8f
616a4a94ab11304598046596
616a4a9d540eb2345e28ba90
616a4aabfc34473dad044624
616a4ab482ec5a3a64ddf41e
616a4b18fc344724d0044629
616a4b21be575dd085715093
616a4b2a48c71070e7201a2f
616a4b34e4cd171e054b3b20
616a4b43fc344794f504462b
616a4ba348c710f061201a34
616a4bad48c710b0c4201a35
616a4bbd2f4fba27621b9a9d
616a4bc7f21fca763d774314
616a4bd1ab113085c30465a3
616a4c35ab11309e3e0465a6
616a4c3efc344700fd044630
616a4c50e4cd17f8ad4b3b2a
616a4c5abe575d3adb71509a
616a4c63e4cd17c70f4b3b2c
616a4cca82ec5a6256ddf423
616a4cd4540eb2851928ba99
616a4cdef21fca829a77431a
616a4ce8e4cd1799f74b3b2f
616a4cf248c7100275201a39
616a4d5b48c710fadb201a3c
616a4d69ab113054910465af
616a4d7348c7103ce0201a3d
616a4d7eab113062d10465b0
616a4d882f4fba9d841b9aa7
616a4dfb2f4fbaa4b81b9aac
616a4e05f21fca02ce774320
616a4e102f4fba90f61b9aaf
616a4e1ae4cd1770f14b3b33
616a4e24ab113049310465b3
