{
    "backend": "ibmq_toronto",
    "rzz_err_avg": 0.0081342683,
    "cnot_err_avg": 0.0164223534,
    "qubits_list": [
        0,
        1,
        4,
        7,
        10,
        12,
        15,
        18,
        21,
        23,
        24,
        25,
        22,
        19,
        16,
        14,
        11,
        8,
        5
    ],
    "scale_factors": [
        1.0,
        1.5,
        2.0
    ],
    "dt": 0.5,
    "nstart": 0,
    "nend": 20,
    "dpath": "/home/ykent/data/n19/"
}