{
    "h": [
        "0.4800000000*XIIIIIIIIIIIIIIIIII",
        "0.4800000000*IXIIIIIIIIIIIIIIIII",
        "0.4800000000*IIXIIIIIIIIIIIIIIII",
        "0.4800000000*IIIXIIIIIIIIIIIIIII",
        "0.4800000000*IIIIXIIIIIIIIIIIIII",
        "0.4800000000*IIIIIXIIIIIIIIIIIII",
        "0.4800000000*IIIIIIXIIIIIIIIIIII",
        "0.4800000000*IIIIIIIXIIIIIIIIIII",
        "0.4800000000*IIIIIIIIXIIIIIIIIII",
        "0.4800000000*IIIIIIIIIXIIIIIIIII",
        "0.4800000000*IIIIIIIIIIXIIIIIIII",
        "0.4800000000*IIIIIIIIIIIXIIIIIII",
        "0.4800000000*IIIIIIIIIIIIXIIIIII",
        "0.4800000000*IIIIIIIIIIIIIXIIIII",
        "0.4800000000*IIIIIIIIIIIIIIXIIII",
        "0.4800000000*IIIIIIIIIIIIIIIXIII",
        "0.4800000000*IIIIIIIIIIIIIIIIXII",
        "0.4800000000*IIIIIIIIIIIIIIIIIXI",
        "0.4800000000*IIIIIIIIIIIIIIIIIIX",
        "2.0000000000*ZIIIIIIIIIIIIIIIIII",
        "4.0000000000*IZIIIIIIIIIIIIIIIII",
        "4.0000000000*IIZIIIIIIIIIIIIIIII",
        "4.0000000000*IIIZIIIIIIIIIIIIIII",
        "4.0000000000*IIIIZIIIIIIIIIIIIII",
        "4.0000000000*IIIIIZIIIIIIIIIIIII",
        "4.0000000000*IIIIIIZIIIIIIIIIIII",
        "4.0000000000*IIIIIIIZIIIIIIIIIII",
        "4.0000000000*IIIIIIIIZIIIIIIIIII",
        "4.0000000000*IIIIIIIIIZIIIIIIIII",
        "4.0000000000*IIIIIIIIIIZIIIIIIII",
        "4.0000000000*IIIIIIIIIIIZIIIIIII",
        "4.0000000000*IIIIIIIIIIIIZIIIIII",
        "4.0000000000*IIIIIIIIIIIIIZIIIII",
        "4.0000000000*IIIIIIIIIIIIIIZIIII",
        "4.0000000000*IIIIIIIIIIIIIIIZIII",
        "4.0000000000*IIIIIIIIIIIIIIIIZII",
        "4.0000000000*IIIIIIIIIIIIIIIIIZI",
        "2.0000000000*IIIIIIIIIIIIIIIIIIZ",
        "2.0000000000*IZZIIIIIIIIIIIIIIII",
        "2.0000000000*IIIZZIIIIIIIIIIIIII",
        "2.0000000000*IIIIIZZIIIIIIIIIIII",
        "2.0000000000*IIIIIIIZZIIIIIIIIII",
        "2.0000000000*IIIIIIIIIZZIIIIIIII",
        "2.0000000000*IIIIIIIIIIIZZIIIIII",
        "2.0000000000*IIIIIIIIIIIIIZZIIII",
        "2.0000000000*IIIIIIIIIIIIIIIZZII",
        "2.0000000000*IIIIIIIIIIIIIIIIIZZ",
        "2.0000000000*ZZIIIIIIIIIIIIIIIII",
        "2.0000000000*IIZZIIIIIIIIIIIIIII",
        "2.0000000000*IIIIZZIIIIIIIIIIIII",
        "2.0000000000*IIIIIIZZIIIIIIIIIII",
        "2.0000000000*IIIIIIIIZZIIIIIIIII",
        "2.0000000000*IIIIIIIIIIZZIIIIIII",
        "2.0000000000*IIIIIIIIIIIIZZIIIII",
        "2.0000000000*IIIIIIIIIIIIIIZZIII",
        "2.0000000000*IIIIIIIIIIIIIIIIZZI"
    ]
}