### new jobs
629579999baeabb66f4acca8
### new jobs
62972df8f33cdbcdee2e0d2d
### new jobs
6297bafcf298066a2f810140
### new jobs
629847aac6235235a79e11eb
### new jobs
6298cdd901885c2532f34776
### new jobs
62996d72bdeb3f2abe22ce8e
### new jobs
6299fa8f22557e5e586484b6
### new jobs
629a88faa38471bbf4450f40
### new jobs
629b2eadc62352122b9e20f5
### new jobs
629bbac516ca6037ab7e24a1
